<?xml version="1.0" encoding="UTF-8" standalone="no"?><svg xmlns="http://www.w3.org/2000/svg" xmlns:xlink="http://www.w3.org/1999/xlink" contentScriptType="application/ecmascript" contentStyleType="text/css" height="757px" preserveAspectRatio="none" style="width:841px;height:757px;" version="1.1" viewBox="0 0 841 757" width="841px" zoomAndPan="magnify"><defs><filter height="300%" id="fvcunxgt0ldoo" width="300%" x="-1" y="-1"><feGaussianBlur result="blurOut" stdDeviation="2.0"/><feColorMatrix in="blurOut" result="blurOut2" type="matrix" values="0 0 0 0 0 0 0 0 0 0 0 0 0 0 0 0 0 0 .4 0"/><feOffset dx="4.0" dy="4.0" in="blurOut2" result="blurOut3"/><feBlend in="SourceGraphic" in2="blurOut3" mode="normal"/></filter></defs><g><rect fill="#FFFFFF" filter="url(#fvcunxgt0ldoo)" height="155.5938" style="stroke: #000000; stroke-width: 2.0;" width="679.5" x="13" y="496.1797"/><rect fill="#FFFFFF" height="76.5391" style="stroke: none; stroke-width: 1.0;" width="679.5" x="13" y="575.2344"/><line style="stroke: #A80036; stroke-width: 1.0; stroke-dasharray: 5.0,5.0;" x1="40" x2="40" y1="87.6094" y2="668.7734"/><line style="stroke: #A80036; stroke-width: 1.0; stroke-dasharray: 5.0,5.0;" x1="300" x2="300" y1="87.6094" y2="668.7734"/><line style="stroke: #A80036; stroke-width: 1.0; stroke-dasharray: 5.0,5.0;" x1="639.5" x2="639.5" y1="87.6094" y2="668.7734"/><text fill="#000000" font-family="sans-serif" font-size="14" lengthAdjust="spacingAndGlyphs" textLength="29" x="23" y="84.5332">User</text><ellipse cx="40.5" cy="13" fill="#FEFECE" filter="url(#fvcunxgt0ldoo)" rx="8" ry="8" style="stroke: #A80036; stroke-width: 2.0;"/><path d="M40.5,21 L40.5,48 M27.5,29 L53.5,29 M40.5,48 L27.5,63 M40.5,48 L53.5,63 " fill="none" filter="url(#fvcunxgt0ldoo)" style="stroke: #A80036; stroke-width: 2.0;"/><text fill="#000000" font-family="sans-serif" font-size="14" lengthAdjust="spacingAndGlyphs" textLength="29" x="23" y="682.3066">User</text><ellipse cx="40.5" cy="695.3828" fill="#FEFECE" filter="url(#fvcunxgt0ldoo)" rx="8" ry="8" style="stroke: #A80036; stroke-width: 2.0;"/><path d="M40.5,703.3828 L40.5,730.3828 M27.5,711.3828 L53.5,711.3828 M40.5,730.3828 L27.5,745.3828 M40.5,730.3828 L53.5,745.3828 " fill="none" filter="url(#fvcunxgt0ldoo)" style="stroke: #A80036; stroke-width: 2.0;"/><rect fill="#FEFECE" filter="url(#fvcunxgt0ldoo)" height="31.6094" style="stroke: #A80036; stroke-width: 1.5;" width="81" x="258" y="51"/><text fill="#000000" font-family="sans-serif" font-size="14" lengthAdjust="spacingAndGlyphs" textLength="67" x="265" y="72.5332">Browser UI</text><rect fill="#FEFECE" filter="url(#fvcunxgt0ldoo)" height="31.6094" style="stroke: #A80036; stroke-width: 1.5;" width="81" x="258" y="667.7734"/><text fill="#000000" font-family="sans-serif" font-size="14" lengthAdjust="spacingAndGlyphs" textLength="67" x="265" y="689.3066">Browser UI</text><rect fill="#FEFECE" filter="url(#fvcunxgt0ldoo)" height="31.6094" style="stroke: #A80036; stroke-width: 1.5;" width="82" x="596.5" y="51"/><text fill="#000000" font-family="sans-serif" font-size="14" lengthAdjust="spacingAndGlyphs" textLength="68" x="603.5" y="72.5332">Reseller UI</text><rect fill="#FEFECE" filter="url(#fvcunxgt0ldoo)" height="31.6094" style="stroke: #A80036; stroke-width: 1.5;" width="82" x="596.5" y="667.7734"/><text fill="#000000" font-family="sans-serif" font-size="14" lengthAdjust="spacingAndGlyphs" textLength="68" x="603.5" y="689.3066">Reseller UI</text><polygon fill="#A80036" points="288.5,115.9609,298.5,119.9609,288.5,123.9609,292.5,119.9609" style="stroke: #A80036; stroke-width: 1.0;"/><line style="stroke: #A80036; stroke-width: 1.0;" x1="40.5" x2="294.5" y1="119.9609" y2="119.9609"/><text fill="#000000" font-family="sans-serif" font-size="13" font-weight="bold" lengthAdjust="spacingAndGlyphs" textLength="7" x="47.5" y="115.1045">1</text><text fill="#000000" font-family="sans-serif" font-size="13" lengthAdjust="spacingAndGlyphs" textLength="178" x="58.5" y="115.1045">Visit the Reseller UI login page</text><polygon fill="#A80036" points="627.5,146.3125,637.5,150.3125,627.5,154.3125,631.5,150.3125" style="stroke: #A80036; stroke-width: 1.0;"/><line style="stroke: #A80036; stroke-width: 1.0;" x1="300.5" x2="633.5" y1="150.3125" y2="150.3125"/><text fill="#000000" font-family="sans-serif" font-size="13" font-weight="bold" lengthAdjust="spacingAndGlyphs" textLength="7" x="307.5" y="145.4561">2</text><text fill="#000000" font-family="sans-serif" font-size="13" lengthAdjust="spacingAndGlyphs" textLength="198" x="318.5" y="145.4561">Retrieve the Reseller UI login page</text><polygon fill="#A80036" points="311.5,193.0156,301.5,197.0156,311.5,201.0156,307.5,197.0156" style="stroke: #A80036; stroke-width: 1.0;"/><line style="stroke: #A80036; stroke-width: 1.0;" x1="305.5" x2="638.5" y1="197.0156" y2="197.0156"/><text fill="#000000" font-family="sans-serif" font-size="13" font-weight="bold" lengthAdjust="spacingAndGlyphs" textLength="7" x="317.5" y="183.9834">3</text><text fill="#000000" font-family="sans-serif" font-size="13" lengthAdjust="spacingAndGlyphs" textLength="206" x="328.5" y="175.8076">Return the login page with form field</text><text fill="#000000" font-family="sans-serif" font-size="13" lengthAdjust="spacingAndGlyphs" textLength="304" x="328.5" y="192.1592">username, password, and One Time Password(OTP)</text><polygon fill="#A80036" points="51.5,223.3672,41.5,227.3672,51.5,231.3672,47.5,227.3672" style="stroke: #A80036; stroke-width: 1.0;"/><line style="stroke: #A80036; stroke-width: 1.0;" x1="45.5" x2="299.5" y1="227.3672" y2="227.3672"/><text fill="#000000" font-family="sans-serif" font-size="13" font-weight="bold" lengthAdjust="spacingAndGlyphs" textLength="7" x="57.5" y="222.5107">4</text><text fill="#000000" font-family="sans-serif" font-size="13" lengthAdjust="spacingAndGlyphs" textLength="207" x="68.5" y="222.5107">Display the page, wait for user input</text><line style="stroke: #A80036; stroke-width: 1.0;" x1="40.5" x2="82.5" y1="274.0703" y2="274.0703"/><line style="stroke: #A80036; stroke-width: 1.0;" x1="82.5" x2="82.5" y1="274.0703" y2="287.0703"/><line style="stroke: #A80036; stroke-width: 1.0;" x1="41.5" x2="82.5" y1="287.0703" y2="287.0703"/><polygon fill="#A80036" points="51.5,283.0703,41.5,287.0703,51.5,291.0703,47.5,287.0703" style="stroke: #A80036; stroke-width: 1.0;"/><text fill="#000000" font-family="sans-serif" font-size="13" font-weight="bold" lengthAdjust="spacingAndGlyphs" textLength="7" x="47.5" y="261.0381">5</text><text fill="#000000" font-family="sans-serif" font-size="13" lengthAdjust="spacingAndGlyphs" textLength="181" x="58.5" y="252.8623">Recall username and password</text><text fill="#000000" font-family="sans-serif" font-size="13" lengthAdjust="spacingAndGlyphs" textLength="76" x="58.5" y="269.2139">from memory</text><polygon fill="#A80036" points="288.5,313.4219,298.5,317.4219,288.5,321.4219,292.5,317.4219" style="stroke: #A80036; stroke-width: 1.0;"/><line style="stroke: #A80036; stroke-width: 1.0;" x1="40.5" x2="294.5" y1="317.4219" y2="317.4219"/><text fill="#000000" font-family="sans-serif" font-size="13" font-weight="bold" lengthAdjust="spacingAndGlyphs" textLength="7" x="47.5" y="312.5654">6</text><text fill="#000000" font-family="sans-serif" font-size="13" lengthAdjust="spacingAndGlyphs" textLength="225" x="58.5" y="312.5654">Fill in the username and password field</text><line style="stroke: #A80036; stroke-width: 1.0;" x1="40.5" x2="82.5" y1="364.125" y2="364.125"/><line style="stroke: #A80036; stroke-width: 1.0;" x1="82.5" x2="82.5" y1="364.125" y2="377.125"/><line style="stroke: #A80036; stroke-width: 1.0;" x1="41.5" x2="82.5" y1="377.125" y2="377.125"/><polygon fill="#A80036" points="51.5,373.125,41.5,377.125,51.5,381.125,47.5,377.125" style="stroke: #A80036; stroke-width: 1.0;"/><text fill="#000000" font-family="sans-serif" font-size="13" font-weight="bold" lengthAdjust="spacingAndGlyphs" textLength="7" x="47.5" y="351.0928">7</text><text fill="#000000" font-family="sans-serif" font-size="13" lengthAdjust="spacingAndGlyphs" textLength="161" x="58.5" y="342.917">Open Google Authenticator,</text><text fill="#000000" font-family="sans-serif" font-size="13" lengthAdjust="spacingAndGlyphs" textLength="77" x="58.5" y="359.2686">read the OTP</text><polygon fill="#A80036" points="288.5,403.4766,298.5,407.4766,288.5,411.4766,292.5,407.4766" style="stroke: #A80036; stroke-width: 1.0;"/><line style="stroke: #A80036; stroke-width: 1.0;" x1="40.5" x2="294.5" y1="407.4766" y2="407.4766"/><text fill="#000000" font-family="sans-serif" font-size="13" font-weight="bold" lengthAdjust="spacingAndGlyphs" textLength="7" x="47.5" y="402.6201">8</text><text fill="#000000" font-family="sans-serif" font-size="13" lengthAdjust="spacingAndGlyphs" textLength="224" x="58.5" y="402.6201">Fill in the OTP, and hit the send button</text><polygon fill="#A80036" points="627.5,433.8281,637.5,437.8281,627.5,441.8281,631.5,437.8281" style="stroke: #A80036; stroke-width: 1.0;"/><line style="stroke: #A80036; stroke-width: 1.0;" x1="300.5" x2="633.5" y1="437.8281" y2="437.8281"/><text fill="#000000" font-family="sans-serif" font-size="13" font-weight="bold" lengthAdjust="spacingAndGlyphs" textLength="7" x="307.5" y="432.9717">9</text><text fill="#000000" font-family="sans-serif" font-size="13" lengthAdjust="spacingAndGlyphs" textLength="231" x="318.5" y="432.9717">Send the username, password and OTP</text><line style="stroke: #A80036; stroke-width: 1.0;" x1="639.5" x2="681.5" y1="468.1797" y2="468.1797"/><line style="stroke: #A80036; stroke-width: 1.0;" x1="681.5" x2="681.5" y1="468.1797" y2="481.1797"/><line style="stroke: #A80036; stroke-width: 1.0;" x1="640.5" x2="681.5" y1="481.1797" y2="481.1797"/><polygon fill="#A80036" points="650.5,477.1797,640.5,481.1797,650.5,485.1797,646.5,481.1797" style="stroke: #A80036; stroke-width: 1.0;"/><text fill="#000000" font-family="sans-serif" font-size="13" font-weight="bold" lengthAdjust="spacingAndGlyphs" textLength="14" x="646.5" y="463.3232">10</text><text fill="#000000" font-family="sans-serif" font-size="13" lengthAdjust="spacingAndGlyphs" textLength="165" x="664.5" y="463.3232">Verify the information is valid</text><path d="M13,496.1797 L74,496.1797 L74,504.1797 L64,514.1797 L13,514.1797 L13,496.1797 " fill="#EEEEEE" style="stroke: #000000; stroke-width: 1.0;"/><rect fill="none" height="155.5938" style="stroke: #000000; stroke-width: 2.0;" width="679.5" x="13" y="496.1797"/><text fill="#000000" font-family="sans-serif" font-size="13" font-weight="bold" lengthAdjust="spacingAndGlyphs" textLength="16" x="28" y="510.6748">alt</text><text fill="#000000" font-family="sans-serif" font-size="11" font-weight="bold" lengthAdjust="spacingAndGlyphs" textLength="67" x="89" y="509.5986">[Login valid]</text><polygon fill="#A80036" points="311.5,532.8828,301.5,536.8828,311.5,540.8828,307.5,536.8828" style="stroke: #A80036; stroke-width: 1.0;"/><line style="stroke: #A80036; stroke-width: 1.0;" x1="305.5" x2="638.5" y1="536.8828" y2="536.8828"/><text fill="#000000" font-family="sans-serif" font-size="13" font-weight="bold" lengthAdjust="spacingAndGlyphs" textLength="14" x="317.5" y="532.0264">11</text><text fill="#000000" font-family="sans-serif" font-size="13" lengthAdjust="spacingAndGlyphs" textLength="148" x="335.5" y="532.0264">Return the logged in page</text><polygon fill="#A80036" points="51.5,563.2344,41.5,567.2344,51.5,571.2344,47.5,567.2344" style="stroke: #A80036; stroke-width: 1.0;"/><line style="stroke: #A80036; stroke-width: 1.0;" x1="45.5" x2="299.5" y1="567.2344" y2="567.2344"/><text fill="#000000" font-family="sans-serif" font-size="13" font-weight="bold" lengthAdjust="spacingAndGlyphs" textLength="14" x="57.5" y="562.3779">12</text><text fill="#000000" font-family="sans-serif" font-size="13" lengthAdjust="spacingAndGlyphs" textLength="153" x="75.5" y="562.3779">Display the logged in page</text><line style="stroke: #000000; stroke-width: 1.0; stroke-dasharray: 2.0,2.0;" x1="13" x2="692.5" y1="576.2344" y2="576.2344"/><text fill="#000000" font-family="sans-serif" font-size="11" font-weight="bold" lengthAdjust="spacingAndGlyphs" textLength="77" x="18" y="587.6533">[Login invalid]</text><polygon fill="#A80036" points="311.5,609.4219,301.5,613.4219,311.5,617.4219,307.5,613.4219" style="stroke: #A80036; stroke-width: 1.0;"/><line style="stroke: #A80036; stroke-width: 1.0;" x1="305.5" x2="638.5" y1="613.4219" y2="613.4219"/><text fill="#000000" font-family="sans-serif" font-size="13" font-weight="bold" lengthAdjust="spacingAndGlyphs" textLength="14" x="317.5" y="608.5654">13</text><text fill="#000000" font-family="sans-serif" font-size="13" lengthAdjust="spacingAndGlyphs" textLength="139" x="335.5" y="608.5654">Return login failure page</text><polygon fill="#A80036" points="51.5,639.7734,41.5,643.7734,51.5,647.7734,47.5,643.7734" style="stroke: #A80036; stroke-width: 1.0;"/><line style="stroke: #A80036; stroke-width: 1.0;" x1="45.5" x2="299.5" y1="643.7734" y2="643.7734"/><text fill="#000000" font-family="sans-serif" font-size="13" font-weight="bold" lengthAdjust="spacingAndGlyphs" textLength="14" x="57.5" y="638.917">14</text><text fill="#000000" font-family="sans-serif" font-size="13" lengthAdjust="spacingAndGlyphs" textLength="166" x="75.5" y="638.917">Display the login failure page</text><!--
@startuml
autonumber

actor User as user
participant "Browser UI" as browser
participant "Reseller UI" as reseller_ui

user -> browser : Visit the Reseller UI login page
browser -> reseller_ui : Retrieve the Reseller UI login page
browser <- reseller_ui : Return the login page with form field \nusername, password, and One Time Password(OTP)
user <- browser : Display the page, wait for user input
user -> user: Recall username and password \nfrom memory
user -> browser : Fill in the username and password field
user -> user: Open Google Authenticator, \nread the OTP
user -> browser : Fill in the OTP, and hit the send button
browser -> reseller_ui : Send the username, password and OTP
reseller_ui -> reseller_ui : Verify the information is valid
alt Login valid
    browser <- reseller_ui : Return the logged in page
    user <- browser : Display the logged in page
else Login invalid
    browser <- reseller_ui : Return login failure page
    user <- browser : Display the login failure page
end
@enduml

PlantUML version 1.2019.06(Fri May 24 20:10:25 EEST 2019)
(GPL source distribution)
Java Runtime: Java(TM) SE Runtime Environment
JVM: Java HotSpot(TM) 64-Bit Server VM
Java Version: 1.8.0_201-b09
Operating System: Windows 10
OS Version: 10.0
Default Encoding: Cp1252
Language: fi
Country: FI
--></g></svg>